<svg width="154" height="135" viewBox="0 0 154 135" fill="none" xmlns="http://www.w3.org/2000/svg">
<g filter="url(#filter0_d)">
<path d="M132.798 50.2982L117.378 46.2403L64.3231 68.7387C56.9888 63.3713 46.4863 61.4668 37.1973 65.4059C23.4424 71.2388 15.8448 84.6338 21.7866 98.6454C27.7284 112.657 44.848 121.717 58.603 115.884C67.892 111.945 75.2793 102.03 76.6981 92.9506L127.966 71.2098L132.798 50.2982Z" fill="#8C4402"/>
<path d="M132.798 50.2982L115.854 42.6475L62.7996 65.1459C55.4653 59.7785 44.9628 57.874 35.6738 61.8131C21.9189 67.6461 15.5402 83.9152 21.4058 97.7472C27.2714 111.579 43.3245 118.124 57.0795 112.291C66.3685 108.352 72.148 99.1189 73.3882 90.1154L126.264 67.6927L132.798 50.2982Z" fill="#FFAD40"/>
<path d="M21.482 97.9268C27.3476 111.759 43.4007 118.304 57.1556 112.471C66.4447 108.531 72.2242 99.2985 73.4644 90.295L126.34 67.8724L132.619 50.3739L115.676 42.7233L62.7996 65.1459C55.4653 59.7785 44.9628 57.874 35.6738 61.8131" fill="#FFA33E"/>
<path d="M21.4819 97.9269C27.3475 111.759 43.3245 118.124 57.0794 112.291C66.3684 108.352 72.2242 99.2986 73.4644 90.2951L126.34 67.8724L132.619 50.374L115.676 42.7233L62.7996 65.146" fill="#F29233"/>
<path d="M21.4819 97.9268C27.3476 111.759 43.4007 118.304 57.1556 112.471C66.4446 108.532 72.2242 99.2985 73.4644 90.295L126.34 67.8724L132.619 50.3739" fill="#CE6D0D"/>
<path d="M57.1556 112.471C66.4446 108.532 72.4527 99.8375 73.4643 90.295Z" fill="#CE6D0D"/>
<path d="M73.4643 90.2951L126.519 67.7967L132.798 50.2982" fill="#E2821A"/>
<path d="M34.0728 101.277C36.4406 100.273 36.9617 96.1615 35.2368 92.0939C33.5119 88.0263 30.1941 85.5428 27.8263 86.5469C25.4585 87.551 24.9374 91.6624 26.6623 95.73C28.3872 99.7976 31.705 102.281 34.0728 101.277Z" fill="#492E15"/>
<path d="M26.6623 95.73C28.4144 99.8617 31.7505 102.262 34.0728 101.277C36.395 100.292 36.9888 96.2256 35.2368 92.0939" fill="black"/>
<path d="M126.519 67.7966L119.563 64.8121L117.719 69.4091L113.387 67.6431L111.645 71.9847L107.313 70.2187L105.571 74.5603L101.24 72.7942L99.3192 77.2116L94.9874 75.4456L93.2456 79.7872L88.9138 78.0211L87.172 82.3627L82.8402 80.5967L80.9198 85.0141L76.5118 83.0684L73.643 90.2193L126.519 67.7966Z" fill="#BF6104"/>
<path d="M65.1691 66.2606L115.008 45.1257L71.6209 66.0679L65.1691 66.2606Z" fill="#FFAD40"/>
<path d="M117.225 45.881L127.977 50.8588L118.389 51.1099L117.225 45.881Z" fill="#FFA33E"/>
<path d="M34.2488 102.686C39.2136 106.939 47.344 109.213 54.4894 106.183C61.6348 103.153 65.473 95.8033 66.0458 89.2021L34.2488 102.686Z" fill="#BF6104"/>
<path d="M82.4762 41.9661C82.9332 43.044 82.5234 44.0655 81.4516 44.52C80.3798 44.9745 79.3605 44.559 78.9035 43.4812L69.0005 20.1285C68.5434 19.0506 68.9532 18.0291 70.0251 17.5746C71.0969 17.1201 72.1161 17.5356 72.5732 18.6134L82.4762 41.9661Z" fill="white"/>
<path d="M97.731 38.6763C97.3211 39.6978 96.0707 40.2281 95.0514 39.8125C94.0322 39.397 93.4989 38.1395 93.9088 37.118L102.823 14.8992C103.232 13.8776 104.483 13.3474 105.502 13.7629C106.521 14.1784 107.055 15.4359 106.645 16.4575L97.731 38.6763Z" fill="white"/>
<path d="M65.9339 52.1601C66.9532 52.5757 68.2036 52.0454 68.6135 51.0239C69.0233 50.0023 68.4901 48.7449 67.4708 48.3293L45.3022 39.2914C44.2829 38.8759 43.0325 39.4061 42.6227 40.4277C42.2128 41.4492 42.7461 42.7067 43.7653 43.1222L65.9339 52.1601Z" fill="white"/>
</g>
<defs>
<filter id="filter0_d" x="2.66486" y="4.99677" width="150.398" height="129.492" filterUnits="userSpaceOnUse" color-interpolation-filters="sRGB">
<feFlood flood-opacity="0" result="BackgroundImageFix"/>
<feColorMatrix in="SourceAlpha" type="matrix" values="0 0 0 0 0 0 0 0 0 0 0 0 0 0 0 0 0 0 127 0"/>
<feOffset/>
<feGaussianBlur stdDeviation="4"/>
<feColorMatrix type="matrix" values="0 0 0 0 0 0 0 0 0 0 0 0 0 0 0 0 0 0 0.25 0"/>
<feBlend mode="normal" in2="BackgroundImageFix" result="effect1_dropShadow"/>
<feBlend mode="normal" in="SourceGraphic" in2="effect1_dropShadow" result="shape"/>
</filter>
</defs>
</svg>
