<svg width="55" height="55" viewBox="0 0 68 68" fill="none" xmlns="http://www.w3.org/2000/svg">
<circle cx="34" cy="34" r="34" fill="#F2F2F2"/>
<path d="M39.4525 32.0476H30.0308C29.5398 32.0476 29.1095 31.7133 28.98 31.2311C28.8506 30.749 29.054 30.2384 29.4766 29.984C33.5817 27.5149 35.7139 24.6346 35.9952 21.1787C36.0933 19.9793 37.1427 19.0213 38.334 19.0372C39.5495 19.057 40.6883 19.5529 41.5413 20.4339C42.3949 21.3157 42.8653 22.4834 42.8657 23.7218C42.8657 23.722 42.8657 23.7221 42.8657 23.7223V24.0948C42.8657 27.12 41.9855 29.0489 40.3613 31.55C40.1594 31.8607 39.8182 32.0476 39.4525 32.0476Z" fill="#FFC380"/>
<path d="M51.0026 33.3045C51.0026 31.3887 49.4716 29.8301 47.5895 29.8301H30.0344C29.8393 29.8301 29.6478 29.8834 29.48 29.9844C28.2477 30.7261 27.0034 31.3367 26.0036 31.8274C25.6549 31.9985 25.3255 32.1602 25.026 32.3126C24.6569 32.5005 24.4238 32.8844 24.4238 33.3045V47.4976C24.4238 47.9177 24.6569 48.3016 25.026 48.4894C29.4274 50.7293 33.0862 51.0002 37.3527 51.0002C38.0134 51.0002 38.6891 50.9937 39.3839 50.987C40.1524 50.9797 40.9469 50.972 41.7799 50.972H45.2236C47.1056 50.972 48.6367 49.4134 48.6367 47.4976C48.6367 46.8535 48.4637 46.2498 48.1623 45.732C49.143 45.1209 49.7987 44.0203 49.7987 42.7665C49.7987 42.1224 49.6257 41.5187 49.3243 41.0009C50.3049 40.3899 50.9606 39.2892 50.9606 38.0355C50.9606 37.1344 50.6219 36.3124 50.0673 35.6944C50.6712 35.0465 51.0026 34.2015 51.0026 33.3045Z" fill="#FFCF99"/>
<path d="M48.7354 23.6344H46.4116C45.81 23.6344 45.3223 23.1379 45.3223 22.5256C45.3223 21.9132 45.81 21.4167 46.4116 21.4167H48.7354C49.337 21.4167 49.8247 21.9132 49.8247 22.5256C49.8247 23.1379 49.337 23.6344 48.7354 23.6344Z" fill="#29CCB1"/>
<path d="M32.4698 23.6344H30.1459C29.5444 23.6344 29.0566 23.1379 29.0566 22.5256C29.0566 21.9132 29.5444 21.4167 30.1459 21.4167H32.4698C33.0713 21.4167 33.5591 21.9132 33.5591 22.5256C33.5591 23.1379 33.0715 23.6344 32.4698 23.6344Z" fill="#29CCB1"/>
<path d="M35.9575 17.4889C35.5809 17.4889 35.2149 17.29 35.0131 16.9343L33.8512 14.8857C33.5504 14.3554 33.7289 13.6772 34.2499 13.371C34.7708 13.0648 35.4371 13.2466 35.7378 13.7769L36.8998 15.8255C37.2006 16.3558 37.022 17.034 36.5011 17.3401C36.3296 17.441 36.1422 17.4889 35.9575 17.4889Z" fill="#29CCB1"/>
<path d="M42.9244 17.489C42.7395 17.489 42.5522 17.4411 42.3807 17.3402C41.8598 17.034 41.6813 16.3558 41.9821 15.8256L43.144 13.7769C43.4447 13.2466 44.111 13.0647 44.632 13.3711C45.1529 13.6773 45.3314 14.3555 45.0306 14.8858L43.8687 16.9344C43.6671 17.2901 43.3008 17.489 42.9244 17.489Z" fill="#29CCB1"/>
<path d="M21.9384 45.1458V50.9857H19.7598V45.1458C19.7598 44.5338 20.2478 44.037 20.8491 44.037C21.4503 44.037 21.9384 44.5338 21.9384 45.1458Z" fill="#73C3FF"/>
<path d="M48.7354 23.6344H46.4116C45.81 23.6344 45.3223 23.1379 45.3223 22.5256C45.3223 21.9132 45.81 21.4167 46.4116 21.4167H48.7354C49.337 21.4167 49.8247 21.9132 49.8247 22.5256C49.8247 23.1379 49.337 23.6344 48.7354 23.6344Z" fill="#29CCB1"/>
<path d="M32.4698 23.6344H30.1459C29.5444 23.6344 29.0566 23.1379 29.0566 22.5256C29.0566 21.9132 29.5444 21.4167 30.1459 21.4167H32.4698C33.0713 21.4167 33.5591 21.9132 33.5591 22.5256C33.5591 23.1379 33.0715 23.6344 32.4698 23.6344Z" fill="#29CCB1"/>
<path d="M35.9575 17.4889C35.5809 17.4889 35.2149 17.29 35.0131 16.9343L33.8512 14.8857C33.5504 14.3554 33.7289 13.6772 34.2499 13.371C34.7708 13.0648 35.4371 13.2466 35.7378 13.7769L36.8998 15.8255C37.2006 16.3558 37.022 17.034 36.5011 17.3401C36.3296 17.441 36.1422 17.4889 35.9575 17.4889Z" fill="#29CCB1"/>
<path d="M42.9244 17.489C42.7395 17.489 42.5522 17.4411 42.3807 17.3402C41.8598 17.034 41.6813 16.3558 41.9821 15.8256L43.144 13.7769C43.4447 13.2466 44.111 13.0647 44.632 13.3711C45.1529 13.6773 45.3314 14.3555 45.0306 14.8858L43.8687 16.9344C43.6671 17.2901 43.3008 17.489 42.9244 17.489Z" fill="#29CCB1"/>
<path d="M21.9384 45.1458V50.9857H19.7598V45.1458C19.7598 44.5338 20.2478 44.037 20.8491 44.037C21.4503 44.037 21.9384 44.5338 21.9384 45.1458Z" fill="#73C3FF"/>
<path d="M25.496 29.8301H16.2006C15.5994 29.8301 15.1113 30.3269 15.1113 30.9389V49.8631C15.1113 50.4759 15.5994 50.9719 16.2006 50.9859H23.1721C24.5076 50.9719 25.6659 50.1876 26.2258 49.0477C26.456 48.5812 26.5853 48.0542 26.5853 47.4975V30.9389C26.5853 30.3268 26.0972 29.8301 25.496 29.8301Z" fill="#44A4EC"/>
<path d="M21.9384 45.0721V50.9859H19.7598V45.0721C19.7598 44.46 20.2478 43.9633 20.8491 43.9633C21.4503 43.9633 21.9384 44.46 21.9384 45.0721Z" fill="#73C3FF"/>
</svg>
