<svg width="55" height="55" viewBox="0 0 68 68" fill="none" xmlns="http://www.w3.org/2000/svg">
<circle cx="34" cy="34" r="34" fill="#F2F2F2"/>
<path d="M56.3171 28.0114C56.3171 21.9299 51.335 17 45.1895 17C41.1765 17 37.6719 19.109 35.7141 22.2608C33.7565 19.109 30.2504 17 26.2375 17C20.092 17 15.1113 21.9299 15.1113 28.0114C15.1113 31.3224 16.594 34.2846 18.9308 36.3019L34.6987 51.906C34.9679 52.1725 35.3332 52.3222 35.7141 52.3222C36.095 52.3222 36.4602 52.1725 36.7295 51.906L52.4974 36.3019C54.8343 34.2846 56.3171 31.3224 56.3171 28.0114Z" fill="#FF4C4C"/>
<circle cx="49.1107" cy="22.6667" r="11.3333" fill="#108690"/>
<path d="M46.166 21.9158L46.6582 17.5798H51.4395V18.9919H48.0469L47.8359 20.8259C48.2383 20.6111 48.666 20.5037 49.1191 20.5037C49.9316 20.5037 50.5684 20.7556 51.0293 21.2595C51.4902 21.7634 51.7207 22.4685 51.7207 23.3748C51.7207 23.9255 51.6035 24.4197 51.3691 24.8572C51.1387 25.2908 50.8066 25.6287 50.373 25.8708C49.9395 26.1091 49.4277 26.2283 48.8379 26.2283C48.3223 26.2283 47.8438 26.1248 47.4023 25.9177C46.9609 25.7068 46.6113 25.4119 46.3535 25.033C46.0996 24.6541 45.9648 24.2224 45.9492 23.738H47.625C47.6602 24.0935 47.7832 24.3708 47.9941 24.5701C48.209 24.7654 48.4883 24.863 48.832 24.863C49.2148 24.863 49.5098 24.7263 49.7168 24.4529C49.9238 24.1755 50.0273 23.7849 50.0273 23.281C50.0273 22.7966 49.9082 22.4255 49.6699 22.1677C49.4316 21.9099 49.0938 21.781 48.6562 21.781C48.2539 21.781 47.9277 21.8865 47.6777 22.0974L47.5137 22.2498L46.166 21.9158Z" fill="white"/>
</svg>
